// Jest Snapshot v1, https://goo.gl/fbAQLP

exports[`The <Arrows> component matches snapshot 1`] = `
<DocumentFragment>
  <button>
    restart
  </button>
  <div
    class="incorrectArrow"
  >
    ←
  </div>
  <div
    class="incorrectArrow"
  >
    →
  </div>
  <div
    class="incorrectArrow"
  >
    ↓
  </div>
  lives: 0
</DocumentFragment>
`;
